 {
     "script": {
       "lang": "painless",
       "source": "
                    if (params!= null) {
                    String[] loc_short_split=ctx.lat_long.splitOnToken(',');
                    if (loc_short_split !=null) {
                    String lat_string = loc_short_split[0];
                   
                    String lon_string = loc_short_split[1];
                    String[] lat_string_split = lat_string.splitOnToken('.');
                    String lat_string_short = lat_string_split[0] +'.'+ lat_string_split[1].substring(0,2);
                    ctx.lat=Double.parseDouble(lat_string_short);
                    
                    String[] lon_string_split = lon_string.splitOnToken('.');
                    String lon_string_short = lon_string_split[0] +'.'+ lon_string_split[1].substring(0,2);
                    ctx.lon=Double.parseDouble(lon_string_short);

                    }

                    }
                    "
     }
   }